…
```
## `summarise()` ungrouping output (override with `.groups` argument)
```

```r
#TOTAL DE PASOS POR DIA
total_steps_per_day
```

```
## # A tibble: 53 x 2
##    date       total_steps
##    <date>           <dbl>
##  1 2012-10-02         126
##  2 2012-10-03       11352
##  3 2012-10-04       12116
##  4 2012-10-05       13294
##  5 2012-10-06       15420
##  6 2012-10-07       11015
##  7 2012-10-09       12811
##  8 2012-10-10        9900
##  9 2012-10-11       10304
## 10 2012-10-12       17382
## # ... with 43 more rows
```
…
```
## `summarise()` ungrouping output (override with `.groups` argument)
```

```r
#TOTAL DE PASOS POR DIA
total_steps_per_day1
```

```
## # A tibble: 61 x 2
##    date       total_steps
##    <date>           <dbl>
##  1 2012-10-01      10766.
##  2 2012-10-02        126 
##  3 2012-10-03      11352 
##  4 2012-10-04      12116 
##  5 2012-10-05      13294 
##  6 2012-10-06      15420 
##  7 2012-10-07      11015 
##  8 2012-10-08      10766.
##  9 2012-10-09      12811 
## 10 2012-10-10       9900 
## # ... with 51 more rows
```
…
